<?xml version="1.0" encoding="iso-8859-1"?>
<!-- Generator: Adobe Illustrator 19.0.0, SVG Export Plug-In . SVG Version: 6.00 Build 0)  -->
<svg version="1.1" id="Capa_1" xmlns="http://www.w3.org/2000/svg" xmlns:xlink="http://www.w3.org/1999/xlink" x="0px" y="0px"
	 viewBox="0 0 490.05 490.05" style="fill: #8f8" xml:space="preserve">
<g>
	<g>
		<path d="M418.275,418.275c95.7-95.7,95.7-250.8,0-346.5s-250.8-95.7-346.5,0s-95.7,250.8,0,346.5S322.675,513.975,418.275,418.275
			z M157.175,207.575l55.1,55.1l120.7-120.6l42.7,42.7l-120.6,120.6l-42.8,42.7l-42.7-42.7l-55.1-55.1L157.175,207.575z"/>
	</g>
</g>
</svg>
